{
  "project_info": {
    "project_number": "1086579964595",
    "firebase_url": "https://onklas-9f21a.firebaseio.com",
    "project_id": "onklas-9f21a",
    "storage_bucket": "onklas-9f21a.appspot.com"
  },
  "client": [
    {
      "client_info": {
        "mobilesdk_app_id": "1:1086579964595:android:fa0c2e3fd8a969a2c10ec6",
        "android_client_info": {
          "package_name": "id.onklas.app"
        }
      },
      "oauth_client": [
        {
          "client_id": "1086579964595-57cq2u3mah85u2ufq64ms23jk5v7cmj0.apps.googleusercontent.com",
          "client_type": 1,
          "android_info": {
            "package_name": "id.onklas.app",
            "certificate_hash": "4e704010a571abfe65f008d9096c9da96348c058"
          }
        },
        {
          "client_id": "1086579964595-5qjf65o7qp0trscv6d8i2rno8nqusiss.apps.googleusercontent.com",
          "client_type": 1,
          "android_info": {
            "package_name": "id.onklas.app",
            "certificate_hash": "43af0440679719918225fa5b138763de92bdcf65"
          }
        },
        {
          "client_id": "1086579964595-qre0lq8lje8c3t5ofe4p77i6qom8tl9g.apps.googleusercontent.com",
          "client_type": 1,
          "android_info": {
            "package_name": "id.onklas.app",
            "certificate_hash": "c4ed9cb1737d8fa23bd187276b6ad8aca9ada23e"
          }
        },
        {
          "client_id": "1086579964595-g7fr3q1s38m07vbs19tvl3c2h63f2rrj.apps.googleusercontent.com",
          "client_type": 3
        }
      ],
      "api_key": [
        {
          "current_key": "AIzaSyAddS3JcV4VEJH24sZwAYKjGy-PeDDNWJY"
        },
        {
          "current_key": "AIzaSyBNJqbKYWyxIS-nfzeQ1f3hUu4Dfi_LQHE"
        }
      ],
      "services": {
        "appinvite_service": {
          "other_platform_oauth_client": [
            {
              "client_id": "1086579964595-g7fr3q1s38m07vbs19tvl3c2h63f2rrj.apps.googleusercontent.com",
              "client_type": 3
            }
          ]
        }
      }
    },
    {
      "client_info": {
        "mobilesdk_app_id": "1:1086579964595:android:494b6a6bd36a785dc10ec6",
        "android_client_info": {
          "package_name": "id.onklas.app.debug"
        }
      },
      "oauth_client": [
        {
          "client_id": "1086579964595-9tdkvo67v7h0lkb45au4evru9dbklrjd.apps.googleusercontent.com",
          "client_type": 1,
          "android_info": {
            "package_name": "id.onklas.app.debug",
            "certificate_hash": "4e704010a571abfe65f008d9096c9da96348c058"
          }
        },
        {
          "client_id": "1086579964595-g7fr3q1s38m07vbs19tvl3c2h63f2rrj.apps.googleusercontent.com",
          "client_type": 3
        }
      ],
      "api_key": [
        {
          "current_key": "AIzaSyAddS3JcV4VEJH24sZwAYKjGy-PeDDNWJY"
        },
        {
          "current_key": "AIzaSyBNJqbKYWyxIS-nfzeQ1f3hUu4Dfi_LQHE"
        }
      ],
      "services": {
        "appinvite_service": {
          "other_platform_oauth_client": [
            {
              "client_id": "1086579964595-g7fr3q1s38m07vbs19tvl3c2h63f2rrj.apps.googleusercontent.com",
              "client_type": 3
            }
          ]
        }
      }
    },
    {
      "client_info": {
        "mobilesdk_app_id": "1:1086579964595:android:962944fe15c5f57fc10ec6",
        "android_client_info": {
          "package_name": "id.onklas.app.staging"
        }
      },
      "oauth_client": [
        {
          "client_id": "1086579964595-g7fr3q1s38m07vbs19tvl3c2h63f2rrj.apps.googleusercontent.com",
          "client_type": 3
        }
      ],
      "api_key": [
        {
          "current_key": "AIzaSyAddS3JcV4VEJH24sZwAYKjGy-PeDDNWJY"
        },
        {
          "current_key": "AIzaSyBNJqbKYWyxIS-nfzeQ1f3hUu4Dfi_LQHE"
        }
      ],
      "services": {
        "appinvite_service": {
          "other_platform_oauth_client": [
            {
              "client_id": "1086579964595-g7fr3q1s38m07vbs19tvl3c2h63f2rrj.apps.googleusercontent.com",
              "client_type": 3
            }
          ]
        }
      }
    }
  ],
  "configuration_version": "1"
}